4.61025 4.42773 3.96052 4.51709 3.90501 2.40295 3.59146 3.46221 3.40116 3.07545 3.65117 4.27723 3.57302 4.37748 3.63167
5.10715 5.70578 5.552 4.74015 4.09438 4.0497 4.27558 4.78324 4.2112 4.092 4.62473 5.80128 4.34104 4.70793 4.83554
4.50602 4.39856 4.65258 4.60292 3.41029 3.11318 3.94938 4.09483 4.01377 3.78641 4.15641 5.20118 3.65493 4.28547 4.64976
3.44304 3.39748 4.37882 3.48966 2.15661 2.07871 3.34561 3.4405 3.64929 3.25909 3.02556 4.06667 2.95278 3.85879 3.59094
3.78737 5.06961 4.57854 3.77193 2.65399 3.21625 4.02767 4.27016 4.15504 4.0973 3.4745 5.25045 3.19134 4.84596 4.17397
3.67304 4.16396 3.59215 3.29646 2.37656 2.41444 3.55319 2.92584 3.25159 2.75557 3.20331 4.80604 3.06911 4.06706 3.76163
5.36061 5.94794 6.2523 5.12999 4.14405 4.1726 4.82415 5.71988 5.22718 5.35746 4.86608 7.31688 4.83825 6.09058 5.46321
4.08634 4.73151 5.49095 4.3551 3.11997 3.19439 4.01419 4.43818 4.29857 3.77754 3.82472 5.11216 3.75777 4.57594 3.95276
4.32594 4.74381 4.89032 4.54381 3.60894 2.90387 4.21094 3.82983 3.7762 3.44215 3.99596 5.41287 4.13872 4.51566 3.97413
4.22596 4.15297 4.04797 3.92708 3.65422 2.39351 3.68131 3.62131 3.94557 3.12085 4.19326 5.36218 4.23262 4.07465 3.73082
4.43001 5.0721 5.35591 4.81304 3.84329 3.87002 4.5924 4.63625 4.50285 3.8158 4.99942 4.89503 3.84181 5.20528 4.42451
5.21015 5.95169 4.84532 5.49947 4.22866 3.70494 4.59295 4.50118 4.92265 3.99682 4.35425 5.48749 4.17533 4.77499 4.56417
3.82701 4.08571 4.19232 3.99836 2.5342 3.15921 3.70174 4.18844 3.83589 3.34648 3.64515 4.80171 3.25449 3.4517 4.3976
2.96075 3.18411 2.93177 2.74736 2.10678 1.66396 2.46099 2.54781 2.31637 2.00827 2.08243 3.19076 2.35703 2.89672 2.40244
3.86022 5.25135 4.25867 3.56437 3.27798 3.2239 4.08411 3.79214 4.24325 3.80941 4.25773 5.47004 3.58808 4.94785 3.96955 
