2.15519 3.48937 3.72392 2.9098 2.9078 3.26204 3.4342 2.64927 3.02547 3.08517 2.45988 3.13903 2.18065 2.7161 2.01962 2.84803
3.6295 4.52262 5.35714 3.88442 4.54895 4.67517 4.56716 3.5001 4.48738 4.5038 3.22074 4.16179 3.2339 4.06297 2.87493 4.35949
3.3561 3.87547 4.75291 3.39142 4.10389 4.19053 3.97484 3.5671 3.09197 2.63256 3.03961 3.76106 2.78993 2.65011 3.14067 3.48795
3.34708 5.027 5.42406 3.56007 4.39581 4.34792 4.61045 3.39092 4.27837 4.28834 3.72728 4.46251 3.20341 4.1186 2.95048 4.5306
4.02158 4.19709 5.93588 3.88643 4.19462 4.85942 4.02132 2.74506 5.14737 4.05935 3.63259 3.51133 3.77155 4.09464 3.10651 4.359
3.12671 4.5781 5.22693 4.48054 4.7068 4.47136 4.67908 4.28908 4.39785 3.96185 3.19753 3.88644 3.15649 3.39956 3.78486 3.99826
4.26947 4.70959 6.1589 4.90904 4.66176 5.24906 4.35599 3.30033 4.88656 4.0811 3.68098 4.37039 4.15298 4.08219 3.01247 4.75945
2.24009 2.74614 3.45774 2.67799 3.13213 3.03758 2.97892 2.21574 2.46614 2.70764 2.27062 2.9203 2.10078 2.75074 2.09206 2.98929
3.27727 3.84553 4.96723 3.69508 4.29761 4.02212 4.10097 2.86812 3.58972 3.48105 3.04826 3.89026 2.78768 2.85161 2.69283 3.45964
3.88324 5.51998 6.0141 4.61711 4.97433 5.2165 5.20416 4.28853 5.11993 4.80234 3.54582 4.93911 3.7809 4.43344 3.28562 4.77857 
4.34461 4.84289 5.76072 4.18356 4.53483 5.18691 4.75344 3.87108 4.24747 4.17578 3.18034 3.97178 3.62289 3.49807 3.04462 4.38396
3.04593 2.82657 4.14271 4.07821 3.48799 3.59436 3.59972 3.27596 3.04834 3.27969 2.80185 2.9938 2.91347 2.48934 2.76472 3.6195
4.03169 4.38006 5.45606 3.76265 4.28312 5.11464 4.87528 3.8466 4.11735 4.33673 3.73536 4.48841 3.40608 4.37006 3.13615 4.44237
4.59827 5.01818 6.34497 4.36896 5.24872 5.53278 4.89525 4.39495 4.76811 4.07334 4.11983 4.77526 4.17927 4.30966 3.81519 5.30758
3.99654 5.40471 5.91821 4.51921 5.28334 5.09604 5.40543 4.155 4.49369 5.01093 3.70082 4.7904 3.81785 4.1892 3.52345 4.95574
3.23235 3.75242 5.3687 3.64176 3.66723 4.65199 4.47268 3.31226 3.97266 3.74778 3.78052 3.8303 3.27748 3.53588 3.15572 3.94627 
